%YAML 1.1
%TAG !u! tag:unity3d.com,2011:
--- !u!21 &2100000
Material:
  serializedVersion: 6
  m_ObjectHideFlags: 0
  m_CorrespondingSourceObject: {fileID: 0}
  m_PrefabInstance: {fileID: 0}
  m_PrefabAsset: {fileID: 0}
  m_Name: Mat_Icecube
  m_Shader: {fileID: 46, guid: 0000000000000000f000000000000000, type: 0}
  m_ShaderKeywords: GEOM_TYPE_BRANCH_DETAIL GEOM_TYPE_FROND GEOM_TYPE_LEAF GEOM_TYPE_MESH
    _NORMALMAP _PIXELSNAP_NONE
  m_LightmapFlags: 4
  m_EnableInstancingVariants: 0
  m_DoubleSidedGI: 0
  m_CustomRenderQueue: -1
  stringTagMap: {}
  disabledShaderPasses: []
  m_SavedProperties:
    serializedVersion: 3
    m_TexEnvs:
    - _BumpMap:
        m_Texture: {fileID: 2800000, guid: b502f18965f81f84b84edab086ba6d4d, type: 3}
        m_Scale: {x: 1, y: 1}
        m_Offset: {x: 0, y: 0}
    - _CausticTex:
        m_Texture: {fileID: 0}
        m_Scale: {x: 1, y: 1}
        m_Offset: {x: 0, y: 0}
    - _DetailAlbedoMap:
        m_Texture: {fileID: 0}
        m_Scale: {x: 1, y: 1}
        m_Offset: {x: 0, y: 0}
    - _DetailMask:
        m_Texture: {fileID: 0}
        m_Scale: {x: 1, y: 1}
        m_Offset: {x: 0, y: 0}
    - _DetailNormalMap:
        m_Texture: {fileID: 0}
        m_Scale: {x: 1, y: 1}
        m_Offset: {x: 0, y: 0}
    - _EmissionMap:
        m_Texture: {fileID: 0}
        m_Scale: {x: 1, y: 1}
        m_Offset: {x: 0, y: 0}
    - _LuxWater_ReflectionTex:
        m_Texture: {fileID: 0}
        m_Scale: {x: 1, y: 1}
        m_Offset: {x: 0, y: 0}
    - _MainTex:
        m_Texture: {fileID: 2800000, guid: 9742cf0807b587b44a97178503fcb92e, type: 3}
        m_Scale: {x: 1, y: 1}
        m_Offset: {x: 0, y: 0}
    - _MetallicGlossMap:
        m_Texture: {fileID: 0}
        m_Scale: {x: 1, y: 1}
        m_Offset: {x: 0, y: 0}
    - _NormalMap:
        m_Texture: {fileID: 0}
        m_Scale: {x: 1, y: 1}
        m_Offset: {x: 0, y: 0}
    - _OcclusionMap:
        m_Texture: {fileID: 0}
        m_Scale: {x: 1, y: 1}
        m_Offset: {x: 0, y: 0}
    - _ParallaxMap:
        m_Texture: {fileID: 0}
        m_Scale: {x: 1, y: 1}
        m_Offset: {x: 0, y: 0}
    - _ReflectionTex:
        m_Texture: {fileID: 0}
        m_Scale: {x: 1, y: 1}
        m_Offset: {x: 0, y: 0}
    m_Floats:
    - _AbsorptionColorStrength: 0.5
    - _AbsorptionDepth: 0.07
    - _AbsorptionHeight: 1
    - _AbsorptionMaxHeight: 60
    - _AbsorptionStrength: 1
    - _BumpScale: 0.48
    - _CausticMode: 1
    - _CausticsEnabled: 1
    - _CausticsScale: 2
    - _CausticsSelfDistortion: 0.2
    - _CausticsSpeed: 0.9
    - _CausticsTiling: 0.1
    - _Culling: 0
    - _Cutoff: 0.5
    - _DeepFoamBlur: 0
    - _DeepFoamCoverage: 1
    - _DeepFoamTiling: 0.637
    - _Density: 0.1
    - _DetailDistance: 600
    - _DetailFadeRange: 200
    - _DetailNormalMapScale: 1
    - _DstBlend: 0
    - _FoamCaps: 0.5
    - _FoamEnabled: 1
    - _FoamFinalErosion: 0.375
    - _FoamNormalMaskScale: 5
    - _FoamNormalScale: 1
    - _FoamParallax: 0.03
    - _FoamScale: 20
    - _FoamSmoothness: 0.1
    - _FoamSoftIntersectionFactor: 1
    - _FoamSpeed: 0.9
    - _FoamTiling: 0.1
    - _FoamTranslucencyIntensity: 4
    - _FogAbsorptionCancellation: 1
    - _FresnelPower: 3.06
    - _FresnelScale: 0.75
    - _GGlobalFrequency: 1
    - _GGlobalRotation: 0
    - _GGlobalSpeed: 1
    - _GerstnerElevationFactor: 1
    - _GerstnerEnabled: 0
    - _GerstnerIntensity: 1
    - _GerstnerNormalIntensity: 0.05
    - _GlobalTime: 0
    - _GlossMapScale: 0.767
    - _Glossiness: 0.626
    - _GlossyReflections: 1
    - _Help: 0
    - _HotLavaPower: 1.4
    - _HotLavaScale: 1
    - _HotLavaStrenght: 1
    - _InvFade: 1.54
    - _MaxDirLightDepth: 64
    - _MaxFogLightDepth: 64
    - _Metallic: 0.255
    - _Mode: 0
    - _NoiseStrength: 0.15
    - _OcclusionStrength: 1
    - _OrthoSpport: 0
    - _Parallax: 0.02
    - _PixelSnap: 0
    - _PlanarEnabled: 1
    - _ReflectionBumpScale: 0.415
    - _ReflectionGlossiness: 1
    - _ReflectionStrength: 0.65
    - _Refraction: 512
    - _ScatterOcclusion: 0.03
    - _ScatteringNormalInfluence: 0.1
    - _ScatteringPower: 8
    - _Shininess: 200
    - _SlopeAwareFoam: 0
    - _SlopeToMask: 1
    - _SmoothnessTextureChannel: 0
    - _SpecularHighlights: 1
    - _SrcBlend: 1
    - _TranslucencyIntensity: 4
    - _UVDirection: 0
    - _UVSec: 0
    - _UVSpaceMappingEnabled: 0
    - _UnderwaterFoamParallax: 0.06
    - _UnderwaterScatteringIntensity: 2
    - _UsesWaterVolume: 0
    - _WaterIOR: 1.3333
    - _WaterSurfaceYPos: 0
    - _ZTest: 4
    - _ZWrite: 1
    m_Colors:
    - _AnimationDirection: {r: 1, g: 1, b: 1, a: 1}
    - _AnimationTiling: {r: 2.2, g: 2.2, b: -1.1, a: -1.1}
    - _BaseColor: {r: 0.54, g: 0.95, b: 0.99, a: 0.5}
    - _BumpDirection: {r: 1, g: 1, b: -1, a: 1}
    - _BumpRotation: {r: 0, g: 8, b: 32, a: 0}
    - _BumpScale: {r: 1, g: 0.5, b: 0.25, a: 0}
    - _BumpSpeed: {r: 1.7, g: 1, b: 0, a: 1}
    - _BumpTiling: {r: 1, g: 0.5, b: 0.478, a: 0.1}
    - _Color: {r: 0.9622642, g: 0.98504806, b: 1, a: 1}
    - _DeepFoamColor: {r: 0.7, g: 0.7, b: 0.7, a: 0.5}
    - _DepthAtten: {r: 0, g: 32, b: 1, a: 0}
    - _DistortParams: {r: 1, g: 1, b: 2, a: 1.15}
    - _EmissionColor: {r: 0, g: 0, b: 0, a: 1}
    - _EmitColor: {r: 0.2, g: 0.07, b: 0.01, a: 1}
    - _FarBumpSampleParams: {r: 0.25, g: 100, b: 1, a: 1}
    - _FinalBumpSpeed01: {r: 1.7, g: 0, b: 0.99026805, a: -0.13917312}
    - _FinalBumpSpeed23: {r: 0, g: 0, b: 0, a: 0}
    - _FoamColor: {r: 0.7, g: 0.7, b: 0.7, a: 0.8}
    - _GAmplitude: {r: 0.3, g: 0.35, b: 0.25, a: 0.25}
    - _GDirectionAB: {r: 1, g: 0, b: 0.99026805, a: -0.13917312}
    - _GDirectionCD: {r: 0.8480481, g: -0.5299193, b: 1, a: 0}
    - _GFinalFrequency: {r: 1.3, g: 1.35, b: 1.25, a: 1.25}
    - _GFinalSpeed: {r: 1.2, g: 1.375, b: 1.1, a: 1.5}
    - _GFrequency: {r: 1.3, g: 1.35, b: 1.25, a: 1.25}
    - _GRotation: {r: 0, g: 8, b: 32, a: 0}
    - _GSpeed: {r: 1.2, g: 1.375, b: 1.1, a: 1.5}
    - _GSteepness: {r: 1, g: 1, b: 1, a: 1}
    - _GerstnerSecondaryWaves: {r: 0, g: 4.3, b: 0.3, a: 1.65}
    - _GerstnerVertexIntensity: {r: 1, g: 1, b: 1, a: 0}
    - _GlobalSpeed: {r: 0, g: 0.1, b: 0, a: 0}
    - _InvFadeParemeter: {r: 0.15, g: 0.15, b: 0.5, a: 1}
    - _NoiseDir: {r: 0.2, g: 0.1, b: 0, a: 0}
    - _NoiseScale: {r: 4, g: 3, b: 0, a: 0}
    - _ReflectionColor: {r: 0.54, g: 0.95, b: 0.99, a: 0.5}
    - _SpecColor: {r: 0.15, g: 0.15, b: 0.15, a: 1}
    - _SpecularColor: {r: 0.72, g: 0.72, b: 0.72, a: 1}
    - _TranslucencyColor: {r: 0.1, g: 0.2, b: 0.3, a: 0}
    - _UnderWaterReflCol: {r: 1, g: 1, b: 1, a: 0}
    - _WorldLightDir: {r: 0, g: 0.1, b: -0.5, a: 0}
